{
    "success": true,
    "data": {
        "current_page": 2,
        "advert": [
            {
                "id": 5,
                "name": "",
                "thumb_image": "http://127.0.0.1:8000/storage/16731/conversions/5-thumb.jpg",
                "category_name": "Iusto illum adipisci excepturi nihil ut. Laboriosam nesciunt fugit libero iste ut eos. Sint accusantium accusantium numquam. Voluptas cupiditate autem omnis molestiae labore est.",
                "price": 3529.01,
                "discount_price": null,
                "currency_symbol": "€"
            },
            {
                "id": 6,
                "name": "",
                "thumb_image": "http://127.0.0.1:8000/storage/16733/conversions/6-thumb.jpg",
                "category_name": "Sunt quidem ipsa assumenda aut sapiente suscipit. Dolore commodi occaecati nesciunt. Numquam fugit aperiam vero aut nesciunt quia doloremque. Laudantium quasi sed minus eaque voluptatibus quia omnis.",
                "price": 36773.08,
                "discount_price": null,
                "currency_symbol": "€"
            }
        ],
        "first_page_url": "http://127.0.0.1:8000/api/v1/homePageAdverts?page=1",
        "from": 3,
        "last_page": 140327,
        "last_page_url": "http://127.0.0.1:8000/api/v1/homePageAdverts?page=140327",
        "links": [
            {
                "url": "http://127.0.0.1:8000/api/v1/homePageAdverts?page=1",
                "label": "&laquo; Previous",
                "active": false
            },
            {
                "url": "http://127.0.0.1:8000/api/v1/homePageAdverts?page=1",
                "label": "1",
                "active": false
            },
            {
                "url": "http://127.0.0.1:8000/api/v1/homePageAdverts?page=2",
                "label": "2",
                "active": true
            },
            {
                "url": "http://127.0.0.1:8000/api/v1/homePageAdverts?page=3",
                "label": "3",
                "active": false
            },
            {
                "url": "http://127.0.0.1:8000/api/v1/homePageAdverts?page=4",
                "label": "4",
                "active": false
            },
            {
                "url": "http://127.0.0.1:8000/api/v1/homePageAdverts?page=5",
                "label": "5",
                "active": false
            },
            {
                "url": "http://127.0.0.1:8000/api/v1/homePageAdverts?page=6",
                "label": "6",
                "active": false
            },
            {
                "url": "http://127.0.0.1:8000/api/v1/homePageAdverts?page=7",
                "label": "7",
                "active": false
            },
            {
                "url": "http://127.0.0.1:8000/api/v1/homePageAdverts?page=8",
                "label": "8",
                "active": false
            },
            {
                "url": "http://127.0.0.1:8000/api/v1/homePageAdverts?page=9",
                "label": "9",
                "active": false
            },
            {
                "url": "http://127.0.0.1:8000/api/v1/homePageAdverts?page=10",
                "label": "10",
                "active": false
            },
            {
                "url": null,
                "label": "...",
                "active": false
            },
            {
                "url": "http://127.0.0.1:8000/api/v1/homePageAdverts?page=140326",
                "label": "140326",
                "active": false
            },
            {
                "url": "http://127.0.0.1:8000/api/v1/homePageAdverts?page=140327",
                "label": "140327",
                "active": false
            },
            {
                "url": "http://127.0.0.1:8000/api/v1/homePageAdverts?page=3",
                "label": "Next &raquo;",
                "active": false
            }
        ],
        "next_page_url": "http://127.0.0.1:8000/api/v1/homePageAdverts?page=3",
        "path": "http://127.0.0.1:8000/api/v1/homePageAdverts",
        "per_page": 2,
        "prev_page_url": "http://127.0.0.1:8000/api/v1/homePageAdverts?page=1",
        "to": 4,
        "total": 280653
    },
    "message": "AdvertStatuses retrieved successfully.",
    "meta": {
        "locale": "en"
    }
}
